{
  "EDITOR_STATE": {
    "allProjectFiles": {
      "e04aa4f0-2b73-4d8f-803b-9765747d04a4": {
        "id": "e04aa4f0-2b73-4d8f-803b-9765747d04a4",
        "parent": null,
        "name": "indu-0ct16-10_10.js",
        "type": "JS_LAMBDA",
        "isDirectory": false,
        "children": [],
        "isRemovable": true,
        "filePath": "indu-0ct16-10_10.js",
        "cursor": {
          "lineNumber": 5,
          "column": 11
        },
        "config": {
          "runtime": "nodejs10.x",
          "handler": "handler",
          "timeout": 60,
          "memory": 128,
          "layers": [],
          "name": "indu0ct161010"
        },
        "triggers": [],
        "lastUpdated": 1602822637344
      }
    },
    "openFiles": [
      "e04aa4f0-2b73-4d8f-803b-9765747d04a4"
    ],
    "currentFileId": "e04aa4f0-2b73-4d8f-803b-9765747d04a4",
    "resources": {},
    "customTemplate": {
      "syntax": "JSON",
      "overrideDefault": false,
      "dialect": null,
      "definitions": null
    },
    "envVariables": [
      {
        "lambdaId": "all",
        "varKey": "SIGMA_AWS_ACC_ID",
        "varValue": null,
        "shouldPersist": false,
        "displayOnly": false,
        "editable": false
      }
    ],
    "packageJSON": {
      "dependencies": {}
    }
  },
  "PROJECT_META": {
    "sigmaVersion": "1.4.4",
    "projectName": "indu-0ct16-10_10",
    "projectDescription": "",
    "projectVersion": "1.0.0",
    "projectRegion": "us-east-1",
    "platform": "AWS",
    "language": "nodejs",
    "platformRegions": {},
    "lastSave": 1602824242916
  },
  "VCS_STATE": {
    "provider": "BitBucket",
    "repo": {
      "name": "indu-0ct16-10_1011",
      "url": "https://bitbucket.org/Indunil1992/indu-0ct16-10_1011"
    }
  }
}